Understanding mixed effects models through data simulation
…
Calculate the response values

Now that we have a table of all trials, we can join the information in this table to the information in our subjects and items tables. We join them together using dplyr::inner_join().

joined <- trials %>%
  inner_join(subjects, "subj_id") %>%
  inner_join(items, "item_id")

joined

## # A tibble: 5,000 x 8
##    subj_id item_id     err   S0s   S1s condition     I0i  cond
##    <chr>   <chr>     <dbl> <dbl> <dbl> <fct>       <dbl> <dbl>
##  1 S001    S01      -66.5  -14.7  11.1 ingroup    -79.7   -0.5
##  2 S001    S02      -34.7  -14.7  11.1 ingroup     57.7   -0.5
##  3 S001    S03      -37.5  -14.7  11.1 ingroup    -49.4   -0.5
##  4 S001    S04      231.   -14.7  11.1 ingroup    162.    -0.5
##  5 S001    S05     -188.   -14.7  11.1 ingroup     85.2   -0.5
##  6 S001    S06      105.   -14.7  11.1 ingroup     79.0   -0.5
##  7 S001    S07      -25.6  -14.7  11.1 ingroup      2.20  -0.5
##  8 S001    S08     -365.   -14.7  11.1 ingroup     53.8   -0.5
##  9 S001    S09      107.   -14.7  11.1 ingroup     45.8   -0.5
## 10 S001    S10        8.09 -14.7  11.1 ingroup     72.3   -0.5
## #  with 4,990 more rows
…
each item-specific random intercept (I0i),

each sum of the condition effect (b1) and the random slope (S1s), multiplied by the numerical predictor (cond), and

each residual error (err).

After this we will use dplyr::select() to keep the columns we need for the analysis process. Note that the resulting table has the structure that we set as our goal at the start of this exercise, with the addition of the numerical predictor variable cond.

dat_sim <- joined %>%
  mutate(RT = b0 + S0s + I0i + (b1 + S1s) * cond + err) %>%
  select(subj_id, item_id, condition, cond, RT)

dat_sim

## # A tibble: 5,000 x 5
##    subj_id item_id condition  cond    RT
##    <chr>   <chr>   <fct>     <dbl> <dbl>
##  1 S001    S01     ingroup    -0.5  594.
##  2 S001    S02     ingroup    -0.5  763.
##  3 S001    S03     ingroup    -0.5  653.
##  4 S001    S04     ingroup    -0.5 1133.
##  5 S001    S05     ingroup    -0.5  637.
##  6 S001    S06     ingroup    -0.5  924.
##  7 S001    S07     ingroup    -0.5  716.
##  8 S001    S08     ingroup    -0.5  428.
##  9 S001    S09     ingroup    -0.5  892.
## 10 S001    S10     ingroup    -0.5  820.
## #  with 4,990 more rows
…
