Understanding mixed effects models through data simulation • lmem.sim
…
Once our simulations are complete let’s read the data back in and have a look at the estimates for our fixed effects.

# read saved simulation data
sims <- read_csv("sims.csv", col_types = cols(
  # makes sure plots display in this order
  group = col_factor(ordered = TRUE),
  term = col_factor(ordered = TRUE)
  ))

sims %>%
  filter(effect == "fixed") %>%
  select(term, estimate, p.value)

## # A tibble: 200 x 3
##    term        estimate  p.value
##    <ord>          <dbl>    <dbl>
##  1 (Intercept)   813.   2.93e-86
##  2 X_i            83.4  3.53e- 4
##  3 (Intercept)   799.   1.25e-82
##  4 X_i            57.9  1.58e- 2
##  5 (Intercept)   782.   6.17e-88
##  6 X_i            63.9  4.54e- 3
##  7 (Intercept)   812.   1.97e-83
##  8 X_i            45.7  4.78e- 2
##  9 (Intercept)   824.   8.69e-77
## 10 X_i             1.78 9.45e- 1
## # … with 190 more rows
…
